module gitlab.com/opennota/fb2index

require (
	github.com/go-sql-driver/mysql v1.8.1
	github.com/jmoiron/sqlx v1.4.0
	golang.org/x/text v0.16.0
	gopkg.in/ini.v1 v1.67.0
	modernc.org/sqlite v1.30.2
)

require (
	filippo.io/edwards25519 v1.1.0 // indirect
	github.com/dustin/go-humanize v1.0.1 // indirect
	github.com/google/uuid v1.6.0 // indirect
	github.com/hashicorp/golang-lru/v2 v2.0.7 // indirect
	github.com/mattn/go-isatty v0.0.20 // indirect
	github.com/ncruces/go-strftime v0.1.9 // indirect
	github.com/remyoudompheng/bigfft v0.0.0-20230129092748-24d4a6f8daec // indirect
	github.com/stretchr/testify v1.7.0 // indirect
	golang.org/x/sys v0.22.0 // indirect
	golang.org/x/tools v0.23.0 // indirect
	modernc.org/gc/v3 v3.0.0-20240304020402-f0dba7c97c2b // indirect
	modernc.org/libc v1.55.3 // indirect
	modernc.org/mathutil v1.6.0 // indirect
	modernc.org/memory v1.8.0 // indirect
	modernc.org/strutil v1.2.0 // indirect
	modernc.org/token v1.1.0 // indirect
)

go 1.21

toolchain go1.22.5
